Assignment9
…
df %>% 
  filter(Date_reported== "2020-10-07") %>% 
  arrange(-Cumulative_deaths)

## # A tibble: 235 x 8
##    Date_reported Country_code Country WHO_region New_cases Cumulative_cases
##    <date>        <chr>        <chr>   <chr>          <dbl>            <dbl>
##  1 2020-10-07    US           United~ AMRO           38920          7380326
##  2 2020-10-07    BR           Brazil  AMRO           11946          4927235
##  3 2020-10-07    IN           India   SEARO          72049          6757131
##  4 2020-10-07    MX           Mexico  AMRO            3417           765082
##  5 2020-10-07    GB           The Un~ EURO           14542           530117
##  6 2020-10-07    IT           Italy   EURO            2677           330263
##  7 2020-10-07    PE           Peru    AMRO            1830           829999
##  8 2020-10-07    ES           Spain   EURO            4030           825410
##  9 2020-10-07    FR           France  EURO           10479           608537
## 10 2020-10-07    IR           Iran (~ EMRO            4151           479825
## # ... with 225 more rows, and 2 more variables: New_deaths <dbl>,
## #   Cumulative_deaths <dbl>
…
Create the new variable (column) death_per_cases recording the number of deaths per cases (Hint: divide cumulative deaths by cumulative cases). What are the three countries with the highest deaths per cases?

df$death_per_cases <- df$Cumulative_deaths/df$Cumulative_cases
df %>% 
  filter(Date_reported== "2020-10-07") %>% 
  arrange(-death_per_cases)

## # A tibble: 235 x 9
##    Date_reported Country_code Country WHO_region New_cases Cumulative_cases
##    <date>        <chr>        <chr>   <chr>          <dbl>            <dbl>
##  1 2020-10-07    YE           Yemen   EMRO               6             2051
##  2 2020-10-07    IT           Italy   EURO            2677           330263
##  3 2020-10-07    MX           Mexico  AMRO            3417           765082
##  4 2020-10-07    EC           Ecuador AMRO             717           142056
##  5 2020-10-07    GB           The Un~ EURO           14542           530117
##  6 2020-10-07    MS           Montse~ AMRO               0               13
##  7 2020-10-07    BE           Belgium EURO               0           134197
##  8 2020-10-07    JE           Jersey  EURO              10              431
##  9 2020-10-07    TD           Chad    AFRO              15             1238
## 10 2020-10-07    IM           Isle o~ EURO               2              344
## # ... with 225 more rows, and 3 more variables: New_deaths <dbl>,
## #   Cumulative_deaths <dbl>, death_per_cases <dbl>
…
